<svg width="80" height="80" viewBox="0 0 80 80" fill="none" xmlns="http://www.w3.org/2000/svg">
<mask id="mask0_549_1502" style="mask-type:alpha" maskUnits="userSpaceOnUse" x="0" y="0" width="80" height="80">
<rect width="80" height="80" fill="#D9D9D9"/>
</mask>
<g mask="url(#mask0_549_1502)">
<path d="M29.8667 67.184C30.0393 67.8916 30.4248 68.3634 31.0231 68.3634C31.4833 68.3634 31.7825 68.139 31.7825 67.673C31.7825 67.5292 31.7307 67.3968 31.6387 67.2875C31.4488 67.0632 31.2072 66.9366 30.6837 66.6777L30.442 66.5626C29.7747 66.229 29.3432 65.7572 29.3432 64.9633C29.3432 64.0716 30.0105 63.3984 30.9656 63.3984C31.771 63.3984 32.3233 63.7494 32.6109 64.457L31.7365 65.0151C31.5927 64.6066 31.3395 64.3995 30.9656 64.3995C30.6434 64.3995 30.373 64.6354 30.373 64.9345C30.373 65.0841 30.4248 65.2164 30.5226 65.3315C30.7297 65.5558 30.9828 65.6709 31.5351 65.9298C32.3175 66.298 32.8353 66.672 32.8583 67.6212C32.8583 68.6798 32.0874 69.3586 30.9943 69.3586C29.9645 69.3586 29.1706 68.6338 28.9865 67.7248L29.8667 67.184Z" fill="#E2DBD2"/>
<path d="M33.8076 63.4678H34.8892V69.2957H33.8076V63.4678Z" fill="#E2DBD2"/>
<path d="M36.2239 63.4678H37.363L39.5032 67.3108V63.4678H40.5847V69.2957H39.4456L37.3055 65.4526V69.2957H36.2239V63.4678V63.4678Z" fill="#E2DBD2"/>
<path d="M44.3875 63.4045C45.6532 63.4045 46.5277 64.0431 46.7981 65.1707L45.8258 65.4181C45.5842 64.7795 45.1527 64.3998 44.3875 64.3998C43.4555 64.3998 42.7306 65.0729 42.7306 66.3788C42.7306 67.6848 43.4555 68.3579 44.3875 68.3579C45.1527 68.3579 45.5842 67.984 45.8258 67.3396L46.7981 67.587C46.5219 68.7089 45.6475 69.3532 44.3875 69.3532C42.909 69.3705 41.6088 68.2601 41.6318 66.3731C41.6088 64.4918 42.9032 63.3872 44.3875 63.4045Z" fill="#E2DBD2"/>
<path d="M47.7991 63.4678H51.4006V64.4688H48.8807V65.6942H50.9001V66.6953H48.8807V68.3004H51.4869V69.3014H47.7991V63.4678V63.4678Z" fill="#E2DBD2"/>
<path d="M30.6146 73.4547L28.9923 74.4212V72.7758L31.4718 71.3203H32.1392V79.8004H30.6146V73.4547Z" fill="#E2DBD2"/>
<path d="M36.5461 76.7515H36.3505C34.7914 76.7515 33.612 75.6124 33.612 73.99C33.612 72.4252 34.8374 71.2285 36.4425 71.2285C38.0304 71.2285 39.273 72.4137 39.273 73.99C39.273 74.4848 39.1062 75.0428 38.8588 75.4801L36.3907 79.8984H34.6936L36.5461 76.7515ZM36.4483 72.6323C35.7119 72.6323 35.1423 73.1788 35.1423 73.99C35.1423 74.8242 35.6889 75.3477 36.4483 75.3477C37.2134 75.3477 37.7542 74.8242 37.7542 73.99C37.76 73.1788 37.1732 72.6323 36.4483 72.6323Z" fill="#E2DBD2"/>
<path d="M41.442 75.2384C40.9472 74.8415 40.6538 74.2316 40.6538 73.5413C40.6538 72.2813 41.6721 71.2285 43.0874 71.2285C44.5026 71.2285 45.5209 72.2813 45.5209 73.5413C45.5209 74.2316 45.2448 74.8357 44.7212 75.2384C45.4346 75.6354 45.8488 76.343 45.8488 77.275C45.8488 78.8859 44.5889 79.9042 43.0874 79.9042C41.5858 79.9042 40.3259 78.8859 40.3259 77.275C40.3259 76.3373 40.7228 75.6354 41.442 75.2384ZM43.0874 76.0496C42.374 76.0496 41.8504 76.5099 41.8504 77.275C41.8504 78.0402 42.3682 78.5004 43.0874 78.5004C43.8007 78.5004 44.3243 78.0402 44.3243 77.275C44.3243 76.5099 43.8007 76.0496 43.0874 76.0496ZM43.0874 72.5115C42.4718 72.5115 42.0691 72.9372 42.0691 73.5643C42.0691 74.2086 42.466 74.6401 43.0874 74.6401C43.7029 74.6401 44.1057 74.2029 44.1057 73.5643C44.0999 72.9372 43.7029 72.5115 43.0874 72.5115Z" fill="#E2DBD2"/>
<path d="M46.6945 79.1966L49.7207 75.2844C50.2039 74.6689 50.3765 74.2431 50.3765 73.7484C50.3765 73.058 50.0141 72.6323 49.3352 72.6323C48.7196 72.6323 48.3284 73.0292 48.2364 73.7484L46.8326 73.4837C46.9074 72.2008 47.9832 71.2285 49.3755 71.2285C50.9633 71.2285 51.9069 72.2238 51.9069 73.6851C51.9069 74.387 51.6652 75.0543 51.182 75.6929L49.1108 78.3911H52.091V79.7949H46.7003V79.1966H46.6945Z" fill="#E2DBD2"/>
<path d="M22.7616 64.2441C22.4567 64.5145 21.9907 64.3131 20.5352 64.8942L12.2737 68.1619C11.6697 68.3921 11.336 68.208 10.6974 67.4946C10.0818 66.8042 9.98977 66.436 10.2717 65.924L14.4714 58.1055C15.2078 56.7133 15.0582 56.2243 15.3632 55.9539C15.95 55.4303 16.3584 55.7352 17.2214 56.7018C18.1592 57.7488 18.3605 58.1631 17.791 58.6751C17.5896 58.8534 17.3135 58.8362 16.9568 59.1583C16.7957 59.3022 16.6058 59.5898 16.2434 60.1766C16.1628 60.2974 16.1398 60.4585 16.3297 60.6714L18.7345 63.3639C18.9588 63.617 19.1372 63.6285 19.304 63.5479C19.8851 63.266 20.1727 63.1337 20.3568 62.9669C20.7135 62.6505 20.7193 62.3858 20.9322 62.196C21.4499 61.7357 21.8929 61.9371 22.566 62.6907C23.1759 63.3754 23.2507 63.8068 22.7616 64.2441ZM15.0755 62.3283C14.9547 62.4318 14.8166 62.7022 13.9824 64.2556C13.2173 65.6996 13.2 65.7859 13.2748 65.8664C13.3553 65.9585 13.5855 65.8952 15.0582 65.3026C16.7842 64.595 16.9165 64.526 16.9798 64.4684C17.1121 64.3534 17.1236 64.1981 16.9683 64.0255L15.5242 62.4088C15.3804 62.2477 15.2308 62.1902 15.0755 62.3283Z" fill="#E2DBD2"/>
<path d="M15.1215 55.0744C14.7879 55.2009 14.3449 55.0916 13.1195 55.5691L7.40664 57.7898C6.18123 58.2673 5.92809 58.6528 5.60016 58.7794C5.1054 58.975 4.62789 58.7794 4.20216 57.6805C3.73041 56.4724 3.94902 56.0064 4.44954 55.8108C4.78322 55.6842 5.28374 55.9431 6.50915 55.4656L12.1242 53.2794C13.0332 52.9227 13.269 52.6408 12.7915 51.4154C12.245 50.0059 11.7272 49.7125 10.8527 49.0796C10.6571 48.9243 10.5421 48.8207 10.4845 48.6712C10.3119 48.2224 10.5076 47.8427 10.9505 47.6701C11.8135 47.3364 13.1827 47.5263 13.4704 48.2742C13.643 48.7229 13.9134 49.6089 15.0583 52.5545C15.2308 53.0032 15.4955 53.4923 15.6508 53.8892C15.8637 54.4243 15.6336 54.873 15.1215 55.0744Z" fill="#E2DBD2"/>
<path d="M3.80519 33.367L12.0436 35.7891C12.6247 35.9617 12.7628 36.3874 12.7455 37.2274C12.7282 38.1881 12.5787 38.5563 11.9861 38.7232L7.83811 39.9026C7.12473 40.1039 7.0672 40.173 7.0672 40.2938C7.06145 40.4376 7.18801 40.4894 7.631 40.6447L11.9228 42.0657C12.5211 42.2728 12.642 42.6871 12.6247 43.504C12.6074 44.482 12.4348 44.8675 11.8653 45.0171L3.52904 47.1054C2.01023 47.4851 1.7686 47.8879 1.36013 47.8821C0.577705 47.8648 0.479902 47.4564 0.502915 46.231C0.53168 44.8617 0.69852 44.459 1.42916 44.4705C1.69381 44.4763 1.92393 44.6949 2.47623 44.7064C2.74087 44.7121 3.11482 44.6661 3.6326 44.5338L8.24083 43.4177C8.88518 43.2681 9.01175 43.1646 9.01175 43.0265C9.01175 42.8827 8.94271 42.7791 8.25809 42.5662L4.17914 41.2603C3.94902 41.1855 3.75341 41.1625 3.55781 41.1567C2.59704 41.1395 1.94119 41.9219 1.48094 41.9161C0.69852 41.8989 0.600717 41.4732 0.62373 40.2477C0.652495 38.9303 0.819335 38.5276 1.54423 38.5391C1.80887 38.5448 2.05625 38.7462 2.59129 38.7577C2.85593 38.7634 3.21262 38.7347 3.73616 38.5678L8.24083 37.2734C8.88518 37.072 9.13831 36.9915 9.13831 36.7959C9.13831 36.6693 8.91394 36.5255 8.3674 36.3702L3.82245 35.07C3.31043 34.9204 2.93647 34.8743 2.67183 34.8686C2.11954 34.8571 1.88366 35.0469 1.61902 35.0412C0.928644 35.0297 0.738792 34.5809 0.756051 33.6374C0.77331 32.8378 1.00919 32.4868 1.66504 32.4983C2.07926 32.4983 2.32089 32.9298 3.80519 33.367Z" fill="#E2DBD2"/>
<path d="M12.245 33.3557C11.8768 33.1774 11.8883 32.6653 10.7952 31.5435L4.64514 25.1345C4.20215 24.6628 4.24818 24.2888 4.66815 23.4259C5.07662 22.5974 5.38154 22.3673 5.9626 22.4363L14.7879 23.3626C16.3584 23.5122 16.7497 23.1957 17.1179 23.3741C17.8197 23.7193 17.6989 24.214 17.1294 25.3762C16.5138 26.6361 16.2089 26.9813 15.5185 26.6476C15.2769 26.5325 15.1906 26.2679 14.7591 26.0608C14.5692 25.9687 14.224 25.8997 13.5509 25.7846C13.4071 25.7559 13.246 25.7961 13.1252 26.0493L11.5431 29.294C11.3935 29.5989 11.4511 29.7658 11.5891 29.8923C12.0724 30.3238 12.3025 30.5367 12.5269 30.646C12.9584 30.8589 13.2058 30.7611 13.4589 30.8819C14.0802 31.1868 14.063 31.6701 13.62 32.579C13.2058 33.4132 12.8376 33.6491 12.245 33.3557ZM11.1059 25.52C10.962 25.451 10.6571 25.4222 8.90819 25.2381C7.28581 25.077 7.19952 25.0943 7.14774 25.1921C7.09596 25.3014 7.23979 25.4912 8.34438 26.6303C9.65034 27.9593 9.7654 28.0571 9.84594 28.0974C10.007 28.1779 10.1509 28.1261 10.2487 27.919L11.1979 25.9687C11.3015 25.7731 11.2957 25.612 11.1059 25.52Z" fill="#E2DBD2"/>
<path d="M17.1409 11.9254L18.4008 16.4186C18.5906 17.0341 18.9013 17.3506 19.304 17.7533L19.9081 18.3574C20.5755 19.0247 20.9609 19.0362 21.3867 19.4677C21.8987 19.9855 21.7088 20.3997 20.9437 21.1649C20.1267 21.9818 19.7585 22.1199 19.2465 21.6021C18.9071 21.2627 18.8438 20.8197 18.1189 20.089L17.5666 19.5367C17.1524 19.1225 16.8762 18.9442 16.2261 18.7658L11.6179 17.4369C10.1336 17.0054 9.5928 17.293 9.30515 17.0054C8.75285 16.4531 9.10379 15.9468 10.0646 14.9976C11.1749 13.893 11.5661 13.6801 12.1012 14.2209C12.2622 14.3877 12.2622 14.6351 12.5269 14.8998C12.7282 15.1011 13.0792 15.3025 13.758 15.5038L16.4447 16.338C16.5828 16.3783 16.6461 16.3898 16.6979 16.338C16.7381 16.2978 16.7497 16.2402 16.6979 16.0849L15.8752 13.3924C15.6623 12.7251 15.461 12.3741 15.2596 12.1728C15.0065 11.9196 14.7591 11.8966 14.5922 11.7298C14.0917 11.2235 14.2816 10.7863 15.0467 10.0211C15.8004 9.26747 16.2204 9.12939 16.7094 9.62416C16.9913 9.91181 16.7151 10.4411 17.1409 11.9254Z" fill="#E2DBD2"/>
<path d="M29.0555 12.1618C28.6298 11.2643 28.0027 11.1492 25.759 11.6037C23.406 12.0755 21.9044 11.5289 21.1393 9.92381C20.213 7.97926 21.1393 5.86788 23.2219 4.87259C24.0561 4.47563 24.7867 4.48138 25.1089 4.3318C25.3333 4.22249 25.4886 4.01538 25.759 3.88306C26.1445 3.69896 26.6162 3.8658 27.065 4.18797C27.5827 4.57343 28.043 5.11997 28.2156 5.48817C28.4572 6.0002 28.2616 6.40867 27.8589 6.60427C27.2663 6.88618 26.8694 6.75961 26.4149 6.54674C25.69 6.22457 25.0169 5.97143 23.9583 6.47771C23.0896 6.89193 22.6753 7.71462 23.0378 8.47403C23.383 9.19317 24.1079 9.36001 25.5461 9.07235C28.6298 8.43376 30.1083 8.88825 31.0231 10.8155C31.8918 12.645 30.9483 14.7909 28.7334 15.8437C27.7035 16.3328 26.9269 16.2695 26.6047 16.4248C26.3803 16.5341 26.225 16.7412 25.9489 16.8736C25.5001 17.0864 24.9536 16.816 24.4876 16.4076C24.0273 16.0163 23.5958 15.4928 23.4232 15.1246C23.1874 14.6241 23.3772 14.1984 23.7972 14.0028C24.407 13.7151 24.8328 13.905 25.339 14.1351C26.1042 14.4975 26.8348 14.8024 27.9739 14.2559C29.021 13.7496 29.4122 12.9154 29.0555 12.1618Z" fill="#E2DBD2"/>
<path d="M36.2814 12.1271C36.2872 11.7704 36.5576 11.4022 36.5806 10.0905L36.6841 3.93466C36.7071 2.6172 36.4425 2.24325 36.454 1.88656C36.4598 1.35152 36.8049 0.983323 37.3745 1.00058C37.8923 1.00634 38.4216 1.08688 38.9911 1.09838C39.7563 1.10989 40.5214 1.05236 41.2866 1.06387C44.1632 1.10989 45.4461 2.07641 45.4173 3.95767C45.4001 4.88392 44.9456 5.56854 44.0136 6.1381C43.8525 6.24165 43.7259 6.32795 43.7259 6.42C43.7259 6.52931 43.8467 6.61561 44.0596 6.6904C45.262 7.20817 45.9351 8.23223 45.9121 9.60146C45.8776 11.6783 43.8813 13.1569 40.9472 13.1109C40.1993 13.0993 39.4399 13.013 38.692 13.0015C38.1742 12.9958 37.6622 13.0533 37.1789 13.0476C36.6036 13.0361 36.2699 12.6564 36.2814 12.1271ZM43.2081 9.30805C43.2254 8.1862 42.5408 7.73171 40.9759 7.70869C39.4111 7.68568 39.1062 7.74897 39.1004 8.284L39.0602 10.683C39.0487 11.2699 39.2615 11.3274 40.5042 11.3447C42.3912 11.3734 43.1851 10.5852 43.2081 9.30805ZM42.7019 4.26834C42.7191 3.30757 42.0863 2.83582 40.6998 2.81281C39.4744 2.79555 39.1867 2.87609 39.1752 3.51469L39.1465 5.37869C39.1407 5.82168 39.3133 5.91373 40.4524 5.93099C41.8562 5.95975 42.6846 5.33266 42.7019 4.26834Z" fill="#E2DBD2"/>
<path d="M46.9419 12.6041C47.0685 12.2705 47.4539 12.0173 47.9199 10.7919L50.1176 5.05032C50.5894 3.81916 50.4743 3.37617 50.6009 3.04824C50.7907 2.54772 51.2395 2.32335 51.7688 2.52471C52.183 2.6858 52.5915 2.91592 53.0229 3.08276C56.2792 4.32543 56.9581 4.43474 57.4413 4.61884C58.172 4.90074 58.3503 6.22395 58.0511 7.00062C57.867 7.48388 57.4701 7.67373 57.0559 7.51265C56.9063 7.45512 56.7682 7.3228 56.6186 7.11568C56.0145 6.31025 55.5831 5.78672 53.9895 5.17689C53.0575 4.8202 52.8158 4.95827 52.6317 5.43578L51.9644 7.17897C51.786 7.64497 51.9183 7.84633 52.4016 8.03043C54.6108 8.87613 54.6396 8.50793 55.1688 8.70929C55.6348 8.88764 55.7154 9.31912 55.4105 10.113C55.1056 10.907 54.7546 11.1774 54.2944 10.999C53.7938 10.8092 53.9664 10.51 51.8608 9.70458C51.3488 9.50897 51.0439 9.60102 50.8598 10.0843L50.1521 11.931C49.922 12.5293 49.9565 12.8458 51.1819 13.3175C52.8906 13.9734 53.5062 13.8065 54.5648 13.5822C54.7949 13.5361 54.956 13.5016 55.1056 13.5592C55.5543 13.7317 55.6981 14.146 55.5255 14.5947C55.2034 15.4404 54.139 16.3321 53.4084 16.0502C52.9424 15.8719 52.1197 15.4807 48.8174 14.2208C48.3859 14.0539 47.8624 13.9331 47.4654 13.7778C46.9362 13.5764 46.7521 13.1047 46.9419 12.6041Z" fill="#E2DBD2"/>
<path d="M60.6688 20.3593C60.9277 20.1176 61.3879 20.0601 62.3545 19.1684L67.4517 14.4681C67.6761 14.261 67.6473 13.9733 67.4287 13.7374L67.2216 13.5131C66.4392 12.6616 65.2195 12.9435 64.834 12.5235C64.5349 12.1956 64.5752 11.7469 64.9434 11.4074C65.5589 10.8379 66.8534 10.5157 67.3827 11.091C67.5783 11.2981 68.5793 12.5983 69.8335 13.9561C71.0992 15.331 72.2901 16.4069 72.4972 16.6312C73.0265 17.2066 72.6007 18.4722 71.9851 19.036C71.6169 19.3755 71.1567 19.3697 70.8633 19.0533C70.4778 18.6333 70.8518 17.4424 70.0694 16.591L69.8623 16.3666C69.6321 16.1192 69.356 16.0847 69.1374 16.2861L64.0401 20.9863C63.0736 21.8781 62.97 22.3153 62.7054 22.5569C62.3142 22.9194 61.8079 22.9251 61.0255 22.0737C60.2316 21.2222 60.2776 20.7217 60.6688 20.3593Z" fill="#E2DBD2"/>
<path d="M71.0992 34.6333C69.868 35.0993 69.6091 35.4617 69.2754 35.5883C68.7749 35.7781 68.3089 35.594 67.8947 34.4952C67.4287 33.264 67.6588 32.8153 68.1593 32.6254C68.493 32.4989 68.9935 32.7693 70.2247 32.3033L71.9391 31.6532C72.3879 31.4806 72.4914 31.308 72.2843 30.7614L71.0934 27.6202C70.8863 27.0737 70.6907 27.0104 70.242 27.183L68.5275 27.8331C67.2964 28.2991 67.1008 28.8284 66.7671 28.9549C66.2666 29.1448 65.7948 28.9434 65.3346 27.7295C64.9203 26.6307 65.1447 26.1647 65.6395 25.9806C65.9732 25.854 66.4161 25.9748 67.6473 25.5088L73.4004 23.3284C74.6316 22.8624 74.8847 22.4827 75.2184 22.3561C75.7189 22.1663 76.1907 22.3677 76.6106 23.4665C77.0709 24.6804 76.8465 25.1464 76.346 25.3362C76.0123 25.4628 75.5118 25.1982 74.2806 25.6584L73.1012 26.1072C72.618 26.2913 72.5374 26.4754 72.7388 27.0046L73.9297 30.1458C74.131 30.6809 74.3151 30.7614 74.7984 30.5773L75.9778 30.1286C77.209 29.6626 77.4046 29.1333 77.7382 29.0067C78.2388 28.8169 78.7048 29.001 79.1708 30.2321C79.585 31.331 79.3549 31.7797 78.8601 31.9696C78.5264 32.0961 78.0892 31.9926 76.858 32.4586L71.0992 34.6333Z" fill="#E2DBD2"/>
<path d="M69.3732 37.1817C69.7299 37.1875 70.0981 37.4579 71.4098 37.4809L77.5599 37.5787C78.8774 37.6017 79.2513 37.337 79.608 37.3486C80.143 37.3543 80.5112 37.6995 80.4997 38.2691C80.494 38.712 80.4134 39.1723 80.4077 39.6383C80.3502 43.1189 80.4825 43.7978 80.4767 44.3156C80.4652 45.098 79.2801 45.7193 78.4459 45.7021C77.9281 45.6963 77.6174 45.3856 77.6232 44.9426C77.6232 44.7816 77.698 44.6032 77.8476 44.3961C78.3941 43.5504 78.7393 42.9693 78.7681 41.2664C78.7853 40.2711 78.5724 40.0928 78.0604 40.0813L76.1964 40.0525C75.7017 40.0468 75.5521 40.2366 75.5463 40.7544C75.5061 43.1189 75.8627 43.0154 75.857 43.5849C75.8512 44.0797 75.4715 44.3098 74.6201 44.2925C73.7686 44.281 73.4004 44.0394 73.4062 43.5446C73.4177 43.0096 73.7514 43.0729 73.7859 40.8119C73.7974 40.2596 73.6018 40.0065 73.0897 40.0007L71.1164 39.9662C70.4778 39.9547 70.1902 40.0928 70.1672 41.4102C70.1384 43.2397 70.5009 43.7633 71.0762 44.678C71.197 44.8736 71.2833 45.0174 71.2833 45.1785C71.2775 45.656 70.9323 45.9379 70.4548 45.9264C69.5458 45.9092 68.3492 45.2188 68.3665 44.4364C68.3722 43.9416 68.4585 43.0326 68.516 39.4945C68.5218 39.0342 68.4643 38.4992 68.47 38.0734C68.4643 37.5039 68.844 37.176 69.3732 37.1817Z" fill="#E2DBD2"/>
<path d="M68.0673 53.2559C70.4721 53.4515 70.9438 53.3134 71.5709 51.7256C71.7838 51.179 71.7148 50.9201 71.3696 50.7878L70.0118 50.2528C68.7864 49.7753 68.2859 50.0341 67.9522 49.9018C67.4575 49.7062 67.2388 49.2402 67.7106 48.0321C68.1421 46.939 68.6138 46.7434 69.1144 46.939C69.448 47.0713 69.6954 47.451 70.9208 47.9343L76.6452 50.178C77.8706 50.6555 78.3136 50.5462 78.6472 50.6785C79.142 50.8741 79.3664 51.3228 79.1593 51.8521C79.0097 52.2318 78.7853 52.6058 78.6185 53.0315C78.3193 53.7909 78.141 54.4468 77.8476 55.1889C76.7142 58.0827 75.1839 59.0492 73.153 58.2553C72.129 57.8526 71.4904 56.7998 71.4271 55.4593C71.4271 55.3097 71.3753 55.2464 71.312 55.2234C71.2603 55.2062 71.197 55.2177 71.0762 55.3385C70.5584 55.8793 69.8623 56.0461 68.7174 55.9426C67.0317 55.816 66.5312 55.8678 66.3356 56.3626C66.2033 56.6962 65.9904 56.7595 65.605 56.6099C64.9951 56.3683 64.6499 55.5456 64.9951 54.6539C65.3576 53.7391 65.9617 53.0833 68.0673 53.2559ZM74.016 55.7067C75.0573 56.1152 75.7649 55.6837 76.3287 54.2454C76.789 53.0718 76.7257 52.8934 75.7304 52.5022L74.0102 51.8291C73.6133 51.6738 73.3659 51.9614 73.1128 52.6058C72.4914 54.1936 72.7906 55.2292 74.016 55.7067Z" fill="#E2DBD2"/>
<path d="M64.7075 57.1277C64.9721 57.3636 65.0699 57.8123 66.048 58.6926L70.6217 62.806C71.5997 63.6863 72.0542 63.738 72.3188 63.9739C72.7158 64.3306 72.7676 64.8311 72.3879 65.2569C72.0887 65.5848 71.7263 65.8839 71.4213 66.2291C69.0913 68.818 68.7462 69.4163 68.401 69.8018C67.8774 70.3829 66.5772 70.0722 65.9559 69.5141C65.5704 69.169 65.5359 68.7317 65.8351 68.398C65.9444 68.2772 66.1112 68.1967 66.3644 68.1334C67.3309 67.8573 67.9752 67.6444 69.1144 66.3787C69.7817 65.6366 69.7414 65.3662 69.356 65.021L67.9695 63.7726C67.6013 63.4389 67.3654 63.4907 67.0202 63.8704C65.4381 65.6308 65.7718 65.7861 65.3921 66.2119C65.0584 66.5801 64.6269 66.5053 63.9941 65.9357C63.3613 65.3662 63.2347 64.9462 63.5684 64.5722C63.9251 64.1753 64.1379 64.4399 65.651 62.7658C66.0192 62.3573 66.0422 62.0409 65.6567 61.6957L64.1897 60.3782C63.7122 59.9525 63.4073 59.8662 62.5271 60.8442C61.3016 62.2077 61.2326 62.8405 61.0658 63.9049C61.0255 64.135 60.9967 64.2961 60.8932 64.4169C60.571 64.7736 60.128 64.7621 59.7713 64.4399C59.0982 63.8358 58.6495 62.5241 59.173 61.9431C59.5067 61.5749 60.1625 60.9478 62.5328 58.3186C62.8435 57.9734 63.1484 57.5304 63.4303 57.214C63.8042 56.771 64.3105 56.771 64.7075 57.1277Z" fill="#E2DBD2"/>
</g>
</svg>
