<svg width="140" height="138" viewBox="0 0 140 138" fill="none" xmlns="http://www.w3.org/2000/svg">
<mask id="mask0_549_2936" style="mask-type:alpha" maskUnits="userSpaceOnUse" x="0" y="0" width="140" height="138">
<rect width="140" height="138" fill="#D9D9D9"/>
</mask>
<g mask="url(#mask0_549_2936)">
<path d="M60.8965 84.7727C56.7788 81.9235 60.5341 76.4768 70.9947 72.1073C84.1736 66.6102 82.6936 57.7101 82.8144 57.4585C82.9554 57.1866 83.2473 57.3678 83.4386 57.5793C88.1403 62.5427 85.8751 72.3086 78.3946 79.3965C72.4948 84.9741 64.8532 87.5112 60.8965 84.7727Z" fill="#C89664"/>
<path d="M79.2399 55.1327C83.3577 57.982 79.6023 63.4287 69.1418 67.7982C55.9629 73.2953 57.4428 82.1953 57.322 82.447C57.1811 82.7188 56.8891 82.5376 56.6978 82.3262C51.9961 77.3627 54.2614 67.5968 61.7418 60.509C67.6416 54.9314 75.2731 52.3842 79.2399 55.1327Z" fill="#C89664"/>
</g>
</svg>
