<svg width="140" height="140" viewBox="0 0 140 140" fill="none" xmlns="http://www.w3.org/2000/svg">
<mask id="mask0_2_43" style="mask-type:alpha" maskUnits="userSpaceOnUse" x="0" y="0" width="140" height="140">
<rect width="140" height="140" fill="#D9D9D9"/>
</mask>
<g mask="url(#mask0_2_43)">
<path d="M51.392 116.822C51.694 118.061 52.3685 118.886 53.4156 118.886C54.221 118.886 54.7446 118.494 54.7446 117.678C54.7446 117.426 54.654 117.195 54.4929 117.004C54.1606 116.611 53.7378 116.389 52.8216 115.936L52.3987 115.735C51.2309 115.151 50.4758 114.326 50.4758 112.936C50.4758 111.376 51.6437 110.198 53.3149 110.198C54.7244 110.198 55.691 110.812 56.1944 112.05L54.664 113.027C54.4123 112.312 53.9693 111.95 53.3149 111.95C52.7511 111.95 52.2779 112.362 52.2779 112.886C52.2779 113.148 52.3685 113.379 52.5397 113.581C52.9021 113.973 53.3451 114.175 54.3117 114.628C55.6809 115.272 56.587 115.926 56.6273 117.588C56.6273 119.44 55.2782 120.628 53.3653 120.628C51.5631 120.628 50.1737 119.36 49.8516 117.769L51.392 116.822Z" fill="white"/>
<path d="M58.2886 110.319H60.1813V120.517H58.2886V110.319Z" fill="white"/>
<path d="M62.5171 110.319H64.5105L68.2558 117.044V110.319H70.1486V120.517H68.1551L64.4099 113.792V120.517H62.5171V110.319V110.319Z" fill="white"/>
<path d="M76.8035 110.208C79.0185 110.208 80.5488 111.325 81.022 113.299L79.3205 113.732C78.8977 112.614 78.1426 111.95 76.8035 111.95C75.1725 111.95 73.904 113.127 73.904 115.413C73.904 117.698 75.1725 118.876 76.8035 118.876C78.1426 118.876 78.8977 118.222 79.3205 117.094L81.022 117.527C80.5387 119.49 79.0084 120.618 76.8035 120.618C74.2161 120.648 71.9407 118.705 71.981 115.403C71.9407 112.111 74.206 110.178 76.8035 110.208Z" fill="white"/>
<path d="M82.7734 110.319H89.076V112.07H84.6662V114.215H88.2V115.967H84.6662V118.776H89.227V120.527H82.7734V110.319V110.319Z" fill="white"/>
<path d="M52.701 127.797L49.8618 129.488V126.608L54.2011 124.061H55.369V138.901H52.701V127.797Z" fill="white"/>
<path d="M63.0809 133.565H62.7386C60.0102 133.565 57.9463 131.572 57.9463 128.733C57.9463 125.994 60.0908 123.9 62.8997 123.9C65.6785 123.9 67.8531 125.974 67.8531 128.733C67.8531 129.599 67.5612 130.575 67.1282 131.34L62.8091 139.073H59.8391L63.0809 133.565ZM62.9098 126.357C61.6211 126.357 60.6244 127.313 60.6244 128.733C60.6244 130.193 61.5808 131.109 62.9098 131.109C64.2488 131.109 65.1952 130.193 65.1952 128.733C65.2053 127.313 64.1783 126.357 62.9098 126.357Z" fill="white"/>
<path d="M71.649 130.917C70.7831 130.223 70.2697 129.156 70.2697 127.947C70.2697 125.743 72.0517 123.9 74.5284 123.9C77.0051 123.9 78.7871 125.743 78.7871 127.947C78.7871 129.156 78.3039 130.213 77.3877 130.917C78.6361 131.612 79.361 132.851 79.361 134.482C79.361 137.301 77.1561 139.083 74.5284 139.083C71.9007 139.083 69.6958 137.301 69.6958 134.482C69.6958 132.84 70.3905 131.612 71.649 130.917ZM74.5284 132.337C73.28 132.337 72.3638 133.142 72.3638 134.482C72.3638 135.821 73.2699 136.626 74.5284 136.626C75.7768 136.626 76.693 135.821 76.693 134.482C76.693 133.142 75.7768 132.337 74.5284 132.337ZM74.5284 126.145C73.4511 126.145 72.7464 126.89 72.7464 127.988C72.7464 129.115 73.4411 129.87 74.5284 129.87C75.6057 129.87 76.3104 129.105 76.3104 127.988C76.3004 126.89 75.6057 126.145 74.5284 126.145Z" fill="white"/>
<path d="M80.8408 137.844L86.1365 130.998C86.9823 129.921 87.2843 129.176 87.2843 128.31C87.2843 127.102 86.65 126.357 85.462 126.357C84.3847 126.357 83.7001 127.051 83.539 128.31L81.0824 127.847C81.2133 125.602 83.096 123.9 85.5325 123.9C88.3112 123.9 89.9624 125.642 89.9624 128.199C89.9624 129.427 89.5395 130.595 88.6938 131.713L85.0693 136.435H90.2845V138.891H80.8509V137.844H80.8408Z" fill="white"/>
<path d="M38.9577 111.678C38.4241 112.151 37.6086 111.798 35.0614 112.815L20.6039 118.534C19.5468 118.937 18.9628 118.614 17.8453 117.366C16.768 116.158 16.6069 115.514 17.1003 114.618L24.4499 100.935C25.7385 98.4988 25.4768 97.643 26.0104 97.1698C27.0373 96.2536 27.7521 96.7872 29.2623 98.4786C30.9034 100.311 31.2558 101.036 30.259 101.932C29.9067 102.244 29.4234 102.214 28.7992 102.778C28.5173 103.029 28.185 103.533 27.5508 104.56C27.4098 104.771 27.3695 105.053 27.7018 105.426L31.9102 110.137C32.3028 110.58 32.6149 110.6 32.9069 110.459C33.9238 109.966 34.4272 109.735 34.7493 109.443C35.3735 108.889 35.3836 108.426 35.7561 108.094C36.6622 107.288 37.4375 107.64 38.6154 108.959C39.6826 110.157 39.8135 110.913 38.9577 111.678ZM25.507 108.325C25.2956 108.506 25.0539 108.979 23.5941 111.698C22.255 114.225 22.2248 114.376 22.3557 114.517C22.4967 114.678 22.8994 114.567 25.4768 113.53C28.4972 112.292 28.7287 112.171 28.8395 112.07C29.071 111.869 29.0912 111.597 28.8193 111.295L26.2923 108.466C26.0406 108.184 25.7788 108.083 25.507 108.325Z" fill="white"/>
<path d="M25.5875 95.6294C25.0036 95.8509 24.2283 95.6596 22.0839 96.4952L12.0864 100.381C9.94194 101.217 9.49895 101.892 8.92508 102.113C8.05924 102.455 7.2236 102.113 6.47858 100.19C5.65301 98.0759 6.03559 97.2604 6.9115 96.9181C7.49544 96.6966 8.37135 97.1497 10.5158 96.314L20.3421 92.4882C21.9328 91.864 22.3456 91.3707 21.51 89.2262C20.5535 86.7596 19.6474 86.2461 18.1171 85.1386C17.7748 84.8668 17.5734 84.6856 17.4727 84.4238C17.1707 83.6385 17.513 82.974 18.2882 82.672C19.7984 82.088 22.1946 82.4203 22.698 83.7291C23 84.5144 23.4732 86.0649 25.4767 91.2197C25.7788 92.0049 26.2419 92.8607 26.5137 93.5554C26.8863 94.4917 26.4835 95.277 25.5875 95.6294Z" fill="white"/>
<path d="M5.78409 57.6431L20.2013 61.8817C21.2182 62.1838 21.4598 62.9288 21.4296 64.3987C21.3994 66.0801 21.1377 66.7244 20.1007 67.0164L12.8417 69.0803C11.5933 69.4327 11.4926 69.5535 11.4926 69.7649C11.4825 70.0166 11.704 70.1072 12.4793 70.3791L19.9899 72.8658C21.037 73.2283 21.2484 73.9532 21.2182 75.3828C21.188 77.0944 20.886 77.7689 19.8892 78.0307L5.30083 81.6853C2.6429 82.3498 2.22004 83.0546 1.50522 83.0445C0.135984 83.0143 -0.035171 82.2995 0.00510069 80.155C0.0554403 77.7588 0.34741 77.0541 1.62604 77.0742C2.08916 77.0843 2.49188 77.4669 3.4584 77.487C3.92152 77.4971 4.57594 77.4165 5.48205 77.185L13.5465 75.2318C14.6741 74.97 14.8956 74.7888 14.8956 74.5472C14.8956 74.2955 14.7747 74.1143 13.5767 73.7417L6.4385 71.4563C6.03579 71.3254 5.69348 71.2852 5.35117 71.2751C3.66982 71.2449 2.52208 72.6141 1.71665 72.6041C0.34741 72.5739 0.176255 71.8288 0.216527 69.6844C0.266867 67.3788 0.558836 66.6741 1.82739 66.6942C2.29052 66.7043 2.72344 67.0566 3.65976 67.0768C4.12288 67.0868 4.74709 67.0365 5.66327 66.7445L13.5465 64.4793C14.6741 64.1269 15.117 63.9859 15.117 63.6436C15.117 63.4221 14.7244 63.1704 13.7679 62.8986L5.81429 60.6232C4.91825 60.3615 4.26383 60.2809 3.80071 60.2709C2.83419 60.2507 2.4214 60.583 1.95828 60.5729C0.750127 60.5528 0.417885 59.7675 0.448089 58.1163C0.478293 56.7169 0.891078 56.1027 2.03882 56.1229C2.76371 56.1229 3.18656 56.878 5.78409 57.6431Z" fill="white"/>
<path d="M20.5538 57.623C19.9095 57.3109 19.9296 56.4149 18.0167 54.4516L7.25412 43.236C6.47889 42.4104 6.55943 41.756 7.29439 40.2458C8.00921 38.796 8.54281 38.3933 9.55967 38.5141L25.0039 40.135C27.7524 40.3968 28.437 39.8431 29.0814 40.1552C30.3097 40.7592 30.0982 41.6251 29.1015 43.6588C28.0242 45.8637 27.4906 46.4678 26.2825 45.8838C25.8596 45.6825 25.7086 45.2193 24.9535 44.8569C24.6213 44.6958 24.0172 44.575 22.8393 44.3736C22.5876 44.3233 22.3057 44.3938 22.0942 44.8368L19.3256 50.5151C19.0638 51.0487 19.1645 51.3406 19.4061 51.5621C20.2518 52.3172 20.6545 52.6897 21.0472 52.881C21.8023 53.2535 22.2352 53.0824 22.6782 53.2938C23.7655 53.8274 23.7353 54.6731 22.9601 56.2638C22.2352 57.7237 21.5908 58.1365 20.5538 57.623ZM18.5604 43.9105C18.3087 43.7897 17.7751 43.7393 14.7144 43.4172C11.8753 43.1353 11.7243 43.1655 11.6337 43.3366C11.5431 43.5279 11.7948 43.8602 13.7278 45.8536C16.0132 48.1793 16.2146 48.3505 16.3555 48.4209C16.6374 48.5619 16.8891 48.4713 17.0603 48.1088L18.7215 44.6958C18.9027 44.3535 18.8926 44.0716 18.5604 43.9105Z" fill="white"/>
<path d="M29.1213 20.12L31.3262 27.983C31.6585 29.0603 32.2021 29.614 32.9069 30.3188L33.964 31.3759C35.1319 32.5438 35.8064 32.5639 36.5515 33.319C37.4475 34.2252 37.1153 34.95 35.7762 36.2891C34.3466 37.7187 33.7023 37.9604 32.8062 37.0542C32.2122 36.4602 32.1015 35.685 30.8329 34.4064L29.8664 33.4399C29.1415 32.715 28.6582 32.4029 27.5205 32.0908L19.4561 29.7651C16.8586 29.01 15.9122 29.5134 15.4088 29.01C14.4423 28.0435 15.0565 27.1575 16.7378 25.4963C18.6809 23.5632 19.3655 23.1907 20.3019 24.1371C20.5838 24.4291 20.5838 24.862 21.0469 25.3251C21.3993 25.6775 22.0134 26.0299 23.2014 26.3822L27.9031 27.8421C28.1448 27.9126 28.2555 27.9327 28.3461 27.8421C28.4166 27.7716 28.4367 27.6709 28.3461 27.3991L26.9064 22.6873C26.5339 21.5194 26.1815 20.9053 25.8291 20.5529C25.3861 20.1099 24.9532 20.0697 24.6613 19.7777C23.7854 18.8917 24.1176 18.1265 25.4566 16.7875C26.7755 15.4686 27.5105 15.227 28.3663 16.0928C28.8596 16.5962 28.3763 17.5225 29.1213 20.12Z" fill="white"/>
<path d="M49.9721 20.5328C49.227 18.9622 48.1296 18.7608 44.2031 19.5562C40.0854 20.3818 37.4576 19.4253 36.1186 16.6164C34.4977 13.2134 36.1186 9.51848 39.7632 7.77673C41.223 7.08204 42.5017 7.09211 43.0655 6.83034C43.4581 6.63905 43.73 6.27661 44.2031 6.04505C44.8777 5.72287 45.7033 6.01484 46.4886 6.57865C47.3947 7.2532 48.2001 8.20965 48.5021 8.854C48.925 9.75004 48.5827 10.4649 47.8779 10.8072C46.8409 11.3005 46.1463 11.079 45.3509 10.7065C44.0823 10.1427 42.9044 9.6997 41.0519 10.5857C39.5316 11.3106 38.8067 12.7503 39.441 14.0792C40.0451 15.3377 41.3136 15.6297 43.8306 15.1263C49.227 14.0088 51.8145 14.8041 53.4153 18.1769C54.9355 21.3785 53.2844 25.1338 49.4083 26.9763C47.6061 27.832 46.2469 27.7213 45.6831 27.9931C45.2905 28.1844 45.0186 28.5469 44.5354 28.7784C43.7501 29.1509 42.7936 28.6777 41.9781 27.9629C41.1727 27.2783 40.4176 26.3621 40.1156 25.7178C39.7028 24.8419 40.035 24.0968 40.77 23.7545C41.8372 23.2511 42.5822 23.5834 43.4682 23.9861C44.8072 24.6204 46.0858 25.154 48.0793 24.1975C49.9117 23.3115 50.5963 21.8517 49.9721 20.5328Z" fill="white"/>
<path d="M62.6177 20.4724C62.6278 19.8482 63.101 19.2038 63.1412 16.9083L63.3224 6.13566C63.3627 3.8301 62.8996 3.17569 62.9197 2.55148C62.9298 1.61516 63.5339 0.970815 64.5306 1.00102C65.4367 1.01109 66.363 1.15204 67.3597 1.17217C68.6987 1.19231 70.0378 1.09163 71.3768 1.11177C76.4107 1.19231 78.6559 2.88372 78.6056 6.17593C78.5753 7.79687 77.78 8.99495 76.149 9.99167C75.8671 10.1729 75.6456 10.3239 75.6456 10.485C75.6456 10.6763 75.857 10.8273 76.2295 10.9582C78.3337 11.8643 79.5117 13.6564 79.4714 16.0526C79.411 19.6871 75.9174 22.2745 70.7828 22.194C69.474 22.1739 68.145 22.0228 66.8361 22.0027C65.93 21.9926 65.034 22.0933 64.1883 22.0832C63.1815 22.0631 62.5976 21.3986 62.6177 20.4724ZM74.7395 15.5391C74.7697 13.5759 73.5716 12.7805 70.8331 12.7402C68.0946 12.6999 67.561 12.8107 67.551 13.747L67.4805 17.9453C67.4604 18.9723 67.8329 19.0729 70.0075 19.1031C73.3098 19.1535 74.6992 17.7742 74.7395 15.5391ZM73.8535 6.7196C73.8837 5.03826 72.7762 4.21269 70.3499 4.17241C68.2054 4.14221 67.702 4.28316 67.6819 5.4007L67.6315 8.66271C67.6214 9.43794 67.9235 9.59902 69.9169 9.62923C72.3735 9.67957 73.8233 8.58216 73.8535 6.7196Z" fill="white"/>
<path d="M81.2733 21.308C81.4948 20.7241 82.1694 20.2811 82.9849 18.1366L86.8308 8.08884C87.6564 5.93431 87.455 5.15908 87.6765 4.58521C88.0088 3.7093 88.7941 3.31665 89.7203 3.66903C90.4452 3.95093 91.16 4.35364 91.9151 4.64561C97.6136 6.82028 98.8016 7.01157 99.6473 7.33375C100.926 7.82708 101.238 10.1427 100.714 11.5019C100.392 12.3476 99.6976 12.6798 98.9727 12.3979C98.711 12.2972 98.4693 12.0657 98.2076 11.7032C97.1504 10.2937 96.3954 9.37754 93.6065 8.31034C91.9755 7.68613 91.5527 7.92776 91.2305 8.76339L90.0626 11.814C89.7505 12.6295 89.9821 12.9819 90.8278 13.304C94.6939 14.784 94.7442 14.1397 95.6705 14.492C96.486 14.8041 96.6269 15.5592 96.0933 16.9486C95.5597 18.338 94.9456 18.8112 94.1401 18.4991C93.2642 18.1668 93.5663 17.6433 89.8814 16.2338C88.9854 15.8915 88.4518 16.0526 88.1296 16.8983L86.8912 20.1301C86.4885 21.1771 86.5489 21.7309 88.6934 22.5564C91.6836 23.7042 92.7608 23.4122 94.6133 23.0196C95.0161 22.939 95.298 22.8786 95.5597 22.9793C96.345 23.2813 96.5967 24.0062 96.2947 24.7915C95.7309 26.2715 93.8683 27.832 92.5897 27.3387C91.7742 27.0266 90.3345 26.342 84.5555 24.1371C83.8004 23.8451 82.8842 23.6337 82.1895 23.3619C81.2633 23.0095 80.9411 22.1839 81.2733 21.308Z" fill="white"/>
<path d="M105.295 34.8796C105.748 34.4567 106.554 34.356 108.245 32.7955L117.165 24.57C117.558 24.2076 117.508 23.7042 117.125 23.2914L116.763 22.8987C115.393 21.4087 113.259 21.902 112.584 21.1671C112.061 20.5932 112.131 19.8079 112.776 19.2139C113.853 18.2172 116.118 17.6534 117.044 18.6601C117.387 19.0226 119.139 21.2979 121.333 23.674C123.548 26.0802 125.632 27.9629 125.995 28.3555C126.921 29.3623 126.176 31.5773 125.099 32.5639C124.454 33.1579 123.649 33.1479 123.136 32.5941C122.461 31.8592 123.115 29.7751 121.746 28.2851L121.384 27.8924C120.981 27.4595 120.498 27.3991 120.115 27.7515L111.195 35.977C109.504 37.5375 109.322 38.3027 108.859 38.7255C108.175 39.3598 107.289 39.3699 105.919 37.8798C104.53 36.3898 104.611 35.5138 105.295 34.8796Z" fill="white"/>
<path d="M123.549 59.8581C121.394 60.6736 120.941 61.3079 120.357 61.5294C119.481 61.8616 118.666 61.5394 117.941 59.6164C117.125 57.4619 117.528 56.6766 118.404 56.3444C118.988 56.1229 119.864 56.5961 122.018 55.7806L125.018 54.6429C125.804 54.3409 125.985 54.0388 125.623 53.0824L123.538 47.5853C123.176 46.6288 122.834 46.5181 122.048 46.8201L119.048 47.9578C116.894 48.7733 116.551 49.6995 115.967 49.921C115.091 50.2533 114.266 49.9009 113.46 47.7766C112.736 45.8536 113.128 45.0381 113.994 44.7159C114.578 44.4944 115.353 44.7059 117.508 43.8904L127.576 40.0746C129.73 39.2591 130.173 38.5946 130.757 38.3731C131.633 38.0409 132.459 38.3933 133.194 40.3162C133.999 42.4406 133.606 43.2561 132.73 43.5883C132.147 43.8098 131.271 43.3467 129.116 44.1521L127.052 44.9374C126.206 45.2596 126.066 45.5818 126.418 46.508L128.502 52.0051C128.854 52.9414 129.177 53.0824 130.022 52.7602L132.086 51.9749C134.241 51.1594 134.583 50.2331 135.167 50.0117C136.043 49.6794 136.858 50.0016 137.674 52.1561C138.399 54.0791 137.996 54.8644 137.13 55.1966C136.546 55.4181 135.781 55.2369 133.627 56.0524L123.549 59.8581Z" fill="white"/>
<path d="M120.528 64.3182C121.153 64.3283 121.797 64.8014 124.092 64.8417L134.855 65.0129C137.161 65.0531 137.815 64.59 138.439 64.6102C139.375 64.6202 140.02 65.2243 140 66.221C139.99 66.9963 139.849 67.8017 139.839 68.6172C139.738 74.7083 139.969 75.8963 139.959 76.8024C139.939 78.1716 137.865 79.259 136.405 79.2288C135.499 79.2187 134.956 78.675 134.966 77.8998C134.966 77.6179 135.097 77.3058 135.358 76.9434C136.315 75.4634 136.919 74.4465 136.969 71.4664C136.999 69.7247 136.627 69.4126 135.731 69.3924L132.469 69.3421C131.603 69.332 131.341 69.6642 131.331 70.5704C131.261 74.7083 131.885 74.5271 131.875 75.5238C131.865 76.3896 131.2 76.7923 129.71 76.7621C128.22 76.742 127.576 76.3191 127.586 75.4533C127.606 74.517 128.19 74.6277 128.25 70.671C128.271 69.7045 127.928 69.2615 127.032 69.2515L123.579 69.1911C122.461 69.1709 121.958 69.4126 121.918 71.7181C121.867 74.9197 122.502 75.8359 123.508 77.4367C123.72 77.779 123.871 78.0307 123.871 78.3126C123.861 79.1482 123.257 79.6416 122.421 79.6214C120.83 79.5912 118.736 78.3831 118.766 77.0138C118.777 76.148 118.928 74.5573 119.028 68.3655C119.038 67.5601 118.938 66.6237 118.948 65.8787C118.938 64.882 119.602 64.3081 120.528 64.3182Z" fill="white"/>
<path d="M118.243 92.4479C122.451 92.7903 123.277 92.5486 124.374 89.7699C124.747 88.8134 124.626 88.3604 124.022 88.1288L121.646 87.1925C119.501 86.3568 118.626 86.8099 118.042 86.5783C117.176 86.236 116.793 85.4205 117.619 83.3063C118.374 81.3934 119.199 81.0511 120.075 81.3934C120.659 81.6249 121.092 82.2894 123.237 83.1351L133.254 87.0616C135.399 87.8972 136.174 87.7059 136.758 87.9375C137.624 88.2798 138.016 89.0651 137.654 89.9914C137.392 90.6559 137 91.3103 136.708 92.0553C136.184 93.3843 135.872 94.532 135.358 95.8308C133.375 100.895 130.697 102.586 127.143 101.197C125.351 100.492 124.233 98.6498 124.123 96.304C124.123 96.0422 124.032 95.9314 123.921 95.8912C123.831 95.861 123.72 95.8811 123.509 96.0925C122.602 97.0389 121.384 97.3309 119.381 97.1497C116.431 96.9282 115.555 97.0188 115.213 97.8846C114.981 98.4686 114.608 98.5793 113.934 98.3175C112.867 97.8947 112.263 96.455 112.867 94.8944C113.501 93.2936 114.558 92.1459 118.243 92.4479ZM128.653 96.7369C130.476 97.4517 131.714 96.6966 132.701 94.1796C133.506 92.1258 133.395 91.8137 131.653 91.129L128.643 89.9511C127.948 89.6793 127.516 90.1827 127.073 91.3103C125.985 94.089 126.509 95.9012 128.653 96.7369Z" fill="white"/>
<path d="M112.363 99.2237C112.826 99.6365 112.998 100.422 114.709 101.962L122.713 109.161C124.425 110.701 125.22 110.792 125.683 111.204C126.378 111.829 126.468 112.705 125.804 113.45C125.28 114.024 124.646 114.547 124.113 115.151C120.035 119.682 119.431 120.729 118.827 121.403C117.911 122.42 115.635 121.876 114.548 120.9C113.873 120.296 113.813 119.531 114.337 118.947C114.528 118.735 114.82 118.594 115.263 118.484C116.954 118 118.082 117.628 120.075 115.413C121.243 114.114 121.173 113.641 120.498 113.037L118.072 110.852C117.427 110.268 117.015 110.359 116.411 111.023C113.642 114.104 114.226 114.376 113.561 115.121C112.977 115.765 112.222 115.634 111.115 114.638C110.007 113.641 109.786 112.906 110.37 112.252C110.994 111.557 111.367 112.02 114.014 109.09C114.659 108.375 114.699 107.822 114.024 107.218L111.457 104.912C110.622 104.167 110.088 104.016 108.548 105.728C106.403 108.114 106.282 109.221 105.99 111.084C105.92 111.486 105.869 111.768 105.688 111.98C105.124 112.604 104.349 112.584 103.725 112.02C102.547 110.963 101.762 108.667 102.678 107.651C103.262 107.006 104.41 105.909 108.558 101.308C109.101 100.704 109.635 99.9284 110.128 99.3747C110.783 98.5995 111.669 98.5995 112.363 99.2237Z" fill="white"/>
</g>
</svg>
