<svg width="146" height="22" viewBox="0 0 146 22" fill="none" xmlns="http://www.w3.org/2000/svg">
<path d="M2.38828 7.16C2.32828 7.22 2.23828 7.28 2.11828 7.34C1.99828 7.4 1.86828 7.44 1.72828 7.46C1.58828 7.46 1.44828 7.44 1.30828 7.4C1.18828 7.36 1.09828 7.27 1.03828 7.13C0.858282 6.79 0.868282 6.46 1.06828 6.14C1.26828 5.82 1.49828 5.58 1.75828 5.42C2.47828 4.92 3.22828 4.49 4.00828 4.13C4.80828 3.75 5.61828 3.41 6.43828 3.11C8.07828 2.55 9.75828 2.14 11.4783 1.88C13.2183 1.62 14.9683 1.49 16.7283 1.49C18.5883 1.49 20.4283 1.64 22.2483 1.94C24.0683 2.22 25.8783 2.61 27.6783 3.11C27.9583 3.21 28.0983 3.41 28.0983 3.71C28.0983 4.01 28.0483 4.26 27.9483 4.46C27.6883 4.9 27.3883 5.15 27.0483 5.21C26.7283 5.25 26.3483 5.21 25.9083 5.09C23.1083 4.37 20.2483 3.92 17.3283 3.74C14.4283 3.54 11.4883 3.81 8.50828 4.55C7.46828 4.81 6.42828 5.15 5.38828 5.57C4.34828 5.99 3.34828 6.52 2.38828 7.16ZM2.59828 20.99C2.51828 21.11 2.40828 21.22 2.26828 21.32C2.12828 21.42 1.97828 21.49 1.81828 21.53C1.67828 21.57 1.52828 21.57 1.36828 21.53C1.22828 21.49 1.11828 21.39 1.03828 21.23C0.938281 21.07 0.898281 20.9 0.918282 20.72C0.938282 20.56 0.988282 20.4 1.06828 20.24C1.14828 20.08 1.24828 19.93 1.36828 19.79C1.48828 19.63 1.58828 19.49 1.66828 19.37C2.48828 18.21 3.12828 17.31 3.58828 16.67C4.04828 16.01 4.38828 15.53 4.60828 15.23C4.84828 14.91 4.99828 14.71 5.05828 14.63C5.11828 14.53 5.16828 14.46 5.20828 14.42C4.56828 14.42 3.99828 14.35 3.49828 14.21C3.01828 14.05 2.79828 13.76 2.83828 13.34C2.83828 13.14 2.90828 12.96 3.04828 12.8C3.20828 12.62 3.37828 12.48 3.55828 12.38C3.73828 12.26 3.91828 12.19 4.09828 12.17C4.27828 12.13 4.39828 12.14 4.45828 12.2C4.53828 12.3 4.66828 12.36 4.84828 12.38C5.04828 12.4 5.25828 12.4 5.47828 12.38C5.69828 12.36 5.91828 12.34 6.13828 12.32C6.35828 12.3 6.54828 12.29 6.70828 12.29L11.3283 5.78C11.4083 5.66 11.5183 5.56 11.6583 5.48C11.7983 5.38 11.9483 5.31 12.1083 5.27C12.2683 5.23 12.4183 5.23 12.5583 5.27C12.6983 5.31 12.8183 5.4 12.9183 5.54C13.0183 5.7 13.0483 5.87 13.0083 6.05C12.9883 6.21 12.9383 6.38 12.8583 6.56C12.7783 6.72 12.6783 6.88 12.5583 7.04C12.4583 7.18 12.3683 7.31 12.2883 7.43L9.07828 11.9C9.01828 11.96 8.95828 12.03 8.89828 12.11C8.85828 12.19 8.81828 12.27 8.77828 12.35C8.91828 12.35 9.06828 12.35 9.22828 12.35C9.40828 12.33 9.67828 12.32 10.0383 12.32C10.3983 12.32 10.8783 12.32 11.4783 12.32C12.0983 12.3 12.9183 12.29 13.9383 12.29C14.1783 12.29 14.3383 12.36 14.4183 12.5C14.5183 12.62 14.5683 12.77 14.5683 12.95C14.5683 13.11 14.5283 13.28 14.4483 13.46C14.3683 13.64 14.2783 13.78 14.1783 13.88C13.9383 14.12 13.5183 14.27 12.9183 14.33C12.3183 14.39 11.6683 14.41 10.9683 14.39C10.2883 14.37 9.60828 14.35 8.92828 14.33C8.24828 14.29 7.71828 14.29 7.33828 14.33L2.59828 20.99ZM27.1816 1.67C27.2616 1.57 27.3716 1.48 27.5116 1.4C27.6516 1.3 27.7916 1.23 27.9316 1.19C28.0916 1.15 28.2416 1.15 28.3816 1.19C28.5416 1.21 28.6716 1.3 28.7716 1.46C28.9116 1.66 28.9416 1.9 28.8616 2.18C28.7816 2.44 28.6616 2.65 28.5016 2.81C27.9216 3.41 27.3616 4.02 26.8216 4.64C26.2816 5.26 25.7416 5.89 25.2016 6.53C24.6216 7.19 23.9516 7.98 23.1916 8.9C22.4516 9.8 21.7016 10.75 20.9416 11.75C20.2016 12.75 19.4916 13.77 18.8116 14.81C18.1316 15.83 17.5816 16.79 17.1616 17.69C17.3016 17.67 17.4216 17.64 17.5216 17.6C17.6416 17.56 17.7616 17.52 17.8816 17.48C18.5016 17.24 19.1216 16.96 19.7416 16.64C20.3616 16.3 20.9616 15.95 21.5416 15.59C22.1416 15.23 22.7016 14.86 23.2216 14.48C23.7616 14.1 24.2616 13.73 24.7216 13.37C25.0016 13.17 25.3116 12.92 25.6516 12.62C25.9916 12.32 26.3416 12.17 26.7016 12.17C26.9216 12.17 27.0816 12.23 27.1816 12.35C27.2816 12.47 27.3316 12.62 27.3316 12.8C27.3516 12.96 27.3316 13.13 27.2716 13.31C27.2116 13.47 27.1416 13.61 27.0616 13.73C26.8016 14.07 26.4616 14.37 26.0416 14.63C25.6416 14.89 25.2716 15.13 24.9316 15.35C24.6716 15.53 24.3116 15.79 23.8516 16.13C23.3916 16.47 22.8616 16.84 22.2616 17.24C21.6816 17.62 21.0716 18 20.4316 18.38C19.7916 18.76 19.1616 19.08 18.5416 19.34C17.9216 19.6 17.3416 19.77 16.8016 19.85C16.2816 19.93 15.8416 19.87 15.4816 19.67C15.1616 19.45 15.0016 19.14 15.0016 18.74C15.0016 18.34 15.0816 17.93 15.2416 17.51C15.4016 17.09 15.5916 16.68 15.8116 16.28C16.0516 15.88 16.2416 15.57 16.3816 15.35C17.8616 12.95 19.5016 10.65 21.3016 8.45C23.1216 6.23 25.0816 3.97 27.1816 1.67ZM27.1509 11.72C27.4909 11.54 27.8009 11.54 28.0809 11.72C28.3609 11.88 28.4409 12.16 28.3209 12.56C28.2609 12.8 28.1309 13.01 27.9309 13.19C27.7309 13.37 27.4909 13.55 27.2109 13.73C26.9509 13.91 26.6609 14.12 26.3409 14.36C26.0209 14.6 25.7209 14.9 25.4409 15.26C25.3609 15.36 25.2609 15.53 25.1409 15.77C25.0409 16.01 24.9609 16.26 24.9009 16.52C24.8409 16.76 24.8309 17 24.8709 17.24C24.9309 17.48 25.0809 17.65 25.3209 17.75C25.7609 17.93 26.2109 17.94 26.6709 17.78C27.1309 17.6 27.5609 17.33 27.9609 16.97C28.3809 16.61 28.7509 16.2 29.0709 15.74C29.4109 15.28 29.6709 14.85 29.8509 14.45C29.4909 14.11 29.2209 13.71 29.0409 13.25C28.8809 12.79 28.9409 12.29 29.2209 11.75C29.4209 11.37 29.7009 11.07 30.0609 10.85C30.4409 10.63 30.8109 10.52 31.1709 10.52C31.5509 10.52 31.8709 10.64 32.1309 10.88C32.4109 11.12 32.5409 11.52 32.5209 12.08C32.5209 12.42 32.4709 12.79 32.3709 13.19C32.4909 13.23 32.6009 13.27 32.7009 13.31C32.8009 13.33 32.9209 13.35 33.0609 13.37C33.7009 13.51 34.4709 13.53 35.3709 13.43C36.2709 13.33 37.1609 13.04 38.0409 12.56C38.1609 12.5 38.3009 12.43 38.4609 12.35C38.6209 12.27 38.7709 12.22 38.9109 12.2C39.0709 12.18 39.2009 12.21 39.3009 12.29C39.4209 12.35 39.5109 12.49 39.5709 12.71C39.6309 12.95 39.6109 13.18 39.5109 13.4C39.4309 13.6 39.3109 13.78 39.1509 13.94C38.9909 14.1 38.8009 14.24 38.5809 14.36C38.3809 14.46 38.1909 14.55 38.0109 14.63C37.5509 14.83 37.0409 15.02 36.4809 15.2C35.9209 15.36 35.3509 15.49 34.7709 15.59C34.1909 15.67 33.6109 15.7 33.0309 15.68C32.4709 15.66 31.9409 15.55 31.4409 15.35C31.1609 15.81 30.8609 16.23 30.5409 16.61C30.2209 16.99 29.9009 17.34 29.5809 17.66C29.2809 17.98 28.9409 18.3 28.5609 18.62C28.1809 18.92 27.7709 19.19 27.3309 19.43C26.9109 19.65 26.4709 19.82 26.0109 19.94C25.5509 20.04 25.0809 20.04 24.6009 19.94C24.0609 19.82 23.6609 19.59 23.4009 19.25C23.1409 18.91 22.9709 18.53 22.8909 18.11C22.8309 17.67 22.8509 17.21 22.9509 16.73C23.0509 16.25 23.1909 15.82 23.3709 15.44C23.7709 14.6 24.2909 13.87 24.9309 13.25C25.5909 12.61 26.3309 12.1 27.1509 11.72ZM41.7349 9.74C41.8149 10.02 41.8149 10.3 41.7349 10.58C41.6549 10.84 41.5349 11.11 41.3749 11.39C41.6549 11.39 41.9549 11.38 42.2749 11.36C42.6149 11.34 42.8549 11.31 42.9949 11.27C43.1749 11.23 43.3549 11.25 43.5349 11.33C43.7149 11.39 43.8349 11.53 43.8949 11.75C43.9349 12.11 43.8449 12.43 43.6249 12.71C43.4049 12.97 43.1549 13.24 42.8749 13.52C42.8149 13.58 42.6049 13.81 42.2449 14.21C41.8849 14.59 41.5149 15.02 41.1349 15.5C40.7549 15.98 40.4349 16.44 40.1749 16.88C39.9349 17.32 39.9049 17.62 40.0849 17.78C40.7449 17.78 41.4749 17.57 42.2749 17.15C43.0949 16.73 43.9149 16.23 44.7349 15.65C45.5549 15.07 46.3549 14.48 47.1349 13.88C47.9349 13.26 48.6549 12.76 49.2949 12.38C49.5549 12.22 49.7849 12.17 49.9849 12.23C50.2049 12.29 50.3649 12.4 50.4649 12.56C50.5849 12.72 50.6349 12.92 50.6149 13.16C50.5949 13.38 50.4849 13.59 50.2849 13.79C49.5649 14.47 48.7149 15.16 47.7349 15.86C46.7749 16.56 45.7949 17.2 44.7949 17.78C43.7949 18.36 42.8349 18.85 41.9149 19.25C41.0149 19.65 40.2649 19.88 39.6649 19.94C38.9649 20.04 38.4649 19.86 38.1649 19.4C37.8849 18.94 37.8149 18.39 37.9549 17.75C38.1349 16.99 38.4349 16.28 38.8549 15.62C39.2949 14.94 39.7749 14.3 40.2949 13.7H39.9349C39.5949 13.72 39.2449 13.75 38.8849 13.79C38.5249 13.83 38.1849 13.78 37.8649 13.64C37.5049 13.5 37.2949 13.28 37.2349 12.98C37.1749 12.68 37.2049 12.37 37.3249 12.05C37.4449 11.71 37.6049 11.38 37.8049 11.06C38.0249 10.74 38.2149 10.49 38.3749 10.31C38.5349 10.15 38.7749 9.95 39.0949 9.71C39.4149 9.45 39.7449 9.25 40.0849 9.11C40.4449 8.97 40.7749 8.93 41.0749 8.99C41.3949 9.05 41.6149 9.3 41.7349 9.74ZM52.842 15.14C51.482 16.14 50.042 16.98 48.522 17.66C48.802 17.84 49.122 17.94 49.482 17.96C49.862 17.96 50.252 17.92 50.652 17.84C51.052 17.74 51.442 17.62 51.822 17.48C52.222 17.32 52.592 17.18 52.932 17.06C53.692 16.74 54.482 16.34 55.302 15.86C56.142 15.38 56.942 14.88 57.702 14.36C58.162 14.08 58.592 13.78 58.992 13.46C59.412 13.12 59.852 12.81 60.312 12.53C60.512 12.41 60.702 12.35 60.882 12.35C61.082 12.33 61.242 12.37 61.362 12.47C61.502 12.55 61.592 12.68 61.632 12.86C61.672 13.02 61.652 13.22 61.572 13.46C61.472 13.7 61.322 13.92 61.122 14.12C60.942 14.32 60.732 14.51 60.492 14.69C60.272 14.85 60.032 15.01 59.772 15.17C59.532 15.31 59.322 15.45 59.142 15.59C58.682 15.87 58.222 16.16 57.762 16.46C57.302 16.76 56.842 17.05 56.382 17.33C55.422 17.91 54.412 18.44 53.352 18.92C52.292 19.38 51.192 19.69 50.052 19.85C49.592 19.93 49.112 19.96 48.612 19.94C48.112 19.92 47.662 19.83 47.262 19.67C46.862 19.49 46.542 19.22 46.302 18.86C46.062 18.5 45.992 18.02 46.092 17.42C46.232 16.4 46.622 15.45 47.262 14.57C47.922 13.67 48.622 12.9 49.362 12.26C49.662 12 50.022 11.72 50.442 11.42C50.882 11.12 51.342 10.87 51.822 10.67C52.302 10.45 52.782 10.32 53.262 10.28C53.742 10.24 54.182 10.34 54.582 10.58C55.082 10.9 55.322 11.28 55.302 11.72C55.302 12.16 55.162 12.6 54.882 13.04C54.602 13.48 54.252 13.89 53.832 14.27C53.432 14.65 53.102 14.94 52.842 15.14ZM51.942 12.71C51.322 12.99 50.742 13.36 50.202 13.82C49.682 14.26 49.222 14.8 48.822 15.44C49.842 14.98 50.792 14.44 51.672 13.82C51.772 13.76 51.902 13.67 52.062 13.55C52.222 13.43 52.372 13.31 52.512 13.19C52.672 13.07 52.802 12.95 52.902 12.83C53.002 12.71 53.042 12.61 53.022 12.53C52.982 12.47 52.912 12.44 52.812 12.44C52.712 12.42 52.602 12.43 52.482 12.47C52.382 12.49 52.282 12.53 52.182 12.59C52.082 12.63 52.002 12.67 51.942 12.71ZM65.5927 10.01C65.3327 10.53 64.9627 11.01 64.4827 11.45C64.0227 11.87 63.5327 12.26 63.0127 12.62C63.2727 12.86 63.5327 13.1 63.7927 13.34C64.0727 13.56 64.3427 13.81 64.6027 14.09C65.3027 14.93 65.4527 15.88 65.0527 16.94C64.8727 17.4 64.6127 17.81 64.2727 18.17C63.9527 18.51 63.5827 18.81 63.1627 19.07C62.7427 19.33 62.2927 19.54 61.8127 19.7C61.3327 19.86 60.8627 19.96 60.4027 20C60.1627 20.02 59.9227 20.01 59.6827 19.97C59.4427 19.93 59.2127 19.86 58.9927 19.76C58.7927 19.66 58.6127 19.53 58.4527 19.37C58.3127 19.19 58.2327 18.96 58.2127 18.68C58.1727 18.26 58.2627 17.85 58.4827 17.45C58.7027 17.05 58.9527 16.71 59.2327 16.43C59.3527 16.33 59.5327 16.21 59.7727 16.07C60.0327 15.91 60.2927 15.78 60.5527 15.68C60.8327 15.58 61.0927 15.54 61.3327 15.56C61.5927 15.56 61.7827 15.67 61.9027 15.89C62.0027 16.09 62.0127 16.29 61.9327 16.49C61.8527 16.67 61.7327 16.85 61.5727 17.03C61.4127 17.19 61.2227 17.34 61.0027 17.48C60.8027 17.62 60.6227 17.74 60.4627 17.84C60.3627 17.9 60.3627 17.93 60.4627 17.93C60.5827 17.93 60.7427 17.91 60.9427 17.87C61.1627 17.81 61.4127 17.73 61.6927 17.63C61.9727 17.53 62.2227 17.42 62.4427 17.3C62.6827 17.16 62.8727 17.01 63.0127 16.85C63.1527 16.69 63.2027 16.52 63.1627 16.34C63.0627 15.98 62.8427 15.66 62.5027 15.38C62.1827 15.08 61.8627 14.77 61.5427 14.45C61.2627 14.17 61.0027 13.9 60.7627 13.64C60.5427 13.38 60.4127 13.05 60.3727 12.65C60.3327 12.25 60.3827 11.86 60.5227 11.48C60.6627 11.08 60.8527 10.71 61.0927 10.37C61.3527 10.01 61.6427 9.69 61.9627 9.41C62.3027 9.13 62.6427 8.89 62.9827 8.69C63.3027 8.51 63.6527 8.37 64.0327 8.27C64.4127 8.15 64.7827 8.16 65.1427 8.3C65.5027 8.44 65.7027 8.68 65.7427 9.02C65.8027 9.36 65.7527 9.69 65.5927 10.01ZM82.9671 6.62C82.6671 6.8 82.3771 6.83 82.0971 6.71C81.8371 6.57 81.7171 6.33 81.7371 5.99C81.7371 5.59 81.8871 5.27 82.1871 5.03C82.5071 4.79 82.8271 4.59 83.1471 4.43C83.9271 3.99 84.7471 3.62 85.6071 3.32C86.4871 3 87.3571 2.69 88.2171 2.39C89.0771 2.11 89.9471 1.87 90.8271 1.67C91.7071 1.45 92.5971 1.26 93.4971 1.1C94.2571 0.979999 95.0371 0.899999 95.8371 0.86C96.6371 0.819999 97.4171 0.929999 98.1771 1.19C98.8971 1.47 99.4171 1.92 99.7371 2.54C100.077 3.16 100.157 3.85 99.9771 4.61C99.7571 5.37 99.3971 6.05 98.8971 6.65C98.3971 7.25 97.8371 7.78 97.2171 8.24C96.5771 8.74 95.8871 9.19 95.1471 9.59C94.4071 9.99 93.6571 10.35 92.8971 10.67L92.2671 10.94C92.4871 11.08 92.6771 11.25 92.8371 11.45C93.0171 11.63 93.1771 11.82 93.3171 12.02C93.6371 12.5 93.8371 13.01 93.9171 13.55C93.9971 14.09 93.9771 14.63 93.8571 15.17C93.7571 15.69 93.5671 16.2 93.2871 16.7C93.0271 17.18 92.7171 17.62 92.3571 18.02C91.5971 18.86 90.6971 19.51 89.6571 19.97C88.6171 20.43 87.5371 20.74 86.4171 20.9C85.9371 20.96 85.4171 20.99 84.8571 20.99C84.3171 20.99 83.8071 20.91 83.3271 20.75C82.8671 20.61 82.4971 20.36 82.2171 20C81.9371 19.62 81.8371 19.09 81.9171 18.41C81.9771 17.85 82.1271 17.29 82.3671 16.73C82.6071 16.17 82.8871 15.63 83.2071 15.11C83.5471 14.59 83.8971 14.09 84.2571 13.61C84.6371 13.11 84.9971 12.63 85.3371 12.17C86.0971 11.13 86.8671 10.11 87.6471 9.11C88.4471 8.09 89.2571 7.07 90.0771 6.05C90.2371 5.83 90.4171 5.63 90.6171 5.45C90.8171 5.27 91.0571 5.2 91.3371 5.24C91.5771 5.26 91.7471 5.36 91.8471 5.54C91.9471 5.72 91.9871 5.92 91.9671 6.14C91.8471 6.64 91.5471 7.15 91.0671 7.67C90.6071 8.19 90.0971 8.8 89.5371 9.5C90.0971 9.7 90.7471 9.7 91.4871 9.5C92.2471 9.28 92.9971 8.95 93.7371 8.51C94.4771 8.07 95.1671 7.57 95.8071 7.01C96.4471 6.45 96.9271 5.9 97.2471 5.36C97.5671 4.82 97.6771 4.35 97.5771 3.95C97.4971 3.55 97.1071 3.29 96.4071 3.17C95.8671 3.07 95.2971 3.03 94.6971 3.05C94.1171 3.07 93.5171 3.14 92.8971 3.26C92.2971 3.36 91.6871 3.49 91.0671 3.65C90.4671 3.81 89.8671 3.98 89.2671 4.16C88.2271 4.5 87.1671 4.85 86.0871 5.21C85.0071 5.55 83.9671 6.02 82.9671 6.62ZM87.9171 11.63C87.2971 12.41 86.6371 13.25 85.9371 14.15C85.2571 15.05 84.6971 16.04 84.2571 17.12C84.0571 17.66 84.0571 18.07 84.2571 18.35C84.4771 18.63 84.9471 18.77 85.6671 18.77C86.4271 18.77 87.1271 18.7 87.7671 18.56C88.4271 18.42 89.0471 18.19 89.6271 17.87C90.2271 17.55 90.7071 17.16 91.0671 16.7C91.4271 16.22 91.6471 15.73 91.7271 15.23C91.8071 14.73 91.7271 14.24 91.4871 13.76C91.2471 13.26 90.8171 12.83 90.1971 12.47C89.9171 12.29 89.5971 12.15 89.2371 12.05C88.8771 11.93 88.4371 11.79 87.9171 11.63ZM108.363 1.67C108.443 1.57 108.553 1.48 108.693 1.4C108.833 1.3 108.973 1.23 109.113 1.19C109.273 1.15 109.423 1.15 109.563 1.19C109.723 1.21 109.853 1.3 109.953 1.46C110.093 1.66 110.123 1.9 110.043 2.18C109.963 2.44 109.843 2.65 109.683 2.81C109.103 3.41 108.543 4.02 108.003 4.64C107.463 5.26 106.923 5.89 106.383 6.53C105.803 7.19 105.133 7.98 104.373 8.9C103.633 9.8 102.883 10.75 102.123 11.75C101.383 12.75 100.673 13.77 99.9933 14.81C99.3133 15.83 98.7633 16.79 98.3433 17.69C98.4833 17.67 98.6033 17.64 98.7033 17.6C98.8233 17.56 98.9433 17.52 99.0633 17.48C99.6833 17.24 100.303 16.96 100.923 16.64C101.543 16.3 102.143 15.95 102.723 15.59C103.323 15.23 103.883 14.86 104.403 14.48C104.943 14.1 105.443 13.73 105.903 13.37C106.183 13.17 106.493 12.92 106.833 12.62C107.173 12.32 107.523 12.17 107.883 12.17C108.103 12.17 108.263 12.23 108.363 12.35C108.463 12.47 108.513 12.62 108.513 12.8C108.533 12.96 108.513 13.13 108.453 13.31C108.393 13.47 108.323 13.61 108.243 13.73C107.983 14.07 107.643 14.37 107.223 14.63C106.823 14.89 106.453 15.13 106.113 15.35C105.853 15.53 105.493 15.79 105.033 16.13C104.573 16.47 104.043 16.84 103.443 17.24C102.863 17.62 102.253 18 101.613 18.38C100.973 18.76 100.343 19.08 99.7233 19.34C99.1033 19.6 98.5233 19.77 97.9833 19.85C97.4633 19.93 97.0233 19.87 96.6633 19.67C96.3433 19.45 96.1833 19.14 96.1833 18.74C96.1833 18.34 96.2633 17.93 96.4233 17.51C96.5833 17.09 96.7733 16.68 96.9933 16.28C97.2333 15.88 97.4233 15.57 97.5633 15.35C99.0433 12.95 100.683 10.65 102.483 8.45C104.303 6.23 106.263 3.97 108.363 1.67ZM114.093 11.3C114.273 11.52 114.353 11.74 114.333 11.96C114.313 12.18 114.233 12.4 114.093 12.62C114.273 12.74 114.363 12.95 114.363 13.25C114.363 13.39 114.333 13.54 114.273 13.7C114.213 13.86 114.113 14.05 113.973 14.27C113.833 14.47 113.633 14.71 113.373 14.99C113.133 15.27 112.823 15.59 112.443 15.95C112.323 16.07 112.153 16.26 111.933 16.52C111.713 16.78 111.543 17.03 111.423 17.27C111.303 17.49 111.283 17.64 111.363 17.72C111.463 17.8 111.763 17.72 112.263 17.48C113.623 16.86 114.913 16.15 116.133 15.35C117.373 14.53 118.663 13.63 120.003 12.65C120.163 12.53 120.353 12.43 120.573 12.35C120.793 12.27 120.993 12.24 121.173 12.26C121.373 12.26 121.523 12.33 121.623 12.47C121.743 12.61 121.773 12.84 121.713 13.16C121.653 13.42 121.513 13.66 121.293 13.88C121.093 14.1 120.863 14.3 120.603 14.48C120.363 14.66 120.103 14.83 119.823 14.99C119.563 15.15 119.333 15.3 119.133 15.44C118.733 15.68 118.243 16.01 117.663 16.43C117.103 16.85 116.493 17.28 115.833 17.72C115.173 18.14 114.493 18.55 113.793 18.95C113.113 19.33 112.473 19.61 111.873 19.79C111.273 19.97 110.743 20.03 110.283 19.97C109.823 19.89 109.493 19.6 109.293 19.1C109.193 18.92 109.143 18.73 109.143 18.53C109.143 18.31 109.173 18.09 109.233 17.87L108.243 18.5C107.723 18.82 107.163 19.14 106.563 19.46C105.963 19.78 105.343 19.96 104.703 20C104.363 20.02 104.073 19.97 103.833 19.85C103.613 19.71 103.433 19.53 103.293 19.31C103.153 19.07 103.053 18.81 102.993 18.53C102.953 18.25 102.963 17.97 103.023 17.69C103.143 17.09 103.363 16.52 103.683 15.98C104.003 15.44 104.373 14.93 104.793 14.45C105.233 13.97 105.703 13.53 106.203 13.13C106.703 12.71 107.193 12.34 107.673 12.02C108.093 11.74 108.583 11.46 109.143 11.18C109.723 10.9 110.303 10.7 110.883 10.58C111.463 10.44 112.033 10.42 112.593 10.52C113.173 10.6 113.673 10.86 114.093 11.3ZM111.003 14.33C111.243 14.15 111.483 13.96 111.723 13.76C111.983 13.56 112.223 13.36 112.443 13.16C111.983 12.78 111.423 12.63 110.763 12.71C110.423 12.75 110.063 12.86 109.683 13.04C109.303 13.2 108.923 13.4 108.543 13.64C108.163 13.88 107.793 14.15 107.433 14.45C107.073 14.73 106.743 15 106.443 15.26C105.743 15.9 105.283 16.44 105.063 16.88C104.863 17.32 104.903 17.62 105.183 17.78C105.403 17.92 105.753 17.88 106.233 17.66C106.713 17.44 107.233 17.14 107.793 16.76C108.373 16.36 108.953 15.94 109.533 15.5C110.113 15.04 110.603 14.65 111.003 14.33ZM124.815 14.78C124.695 14.88 124.555 14.96 124.395 15.02C124.235 15.06 124.075 15.07 123.915 15.05C123.775 15.03 123.655 14.98 123.555 14.9C123.455 14.8 123.395 14.64 123.375 14.42C123.355 14.08 123.465 13.77 123.705 13.49C123.945 13.19 124.245 12.9 124.605 12.62C123.565 12.72 122.695 12.99 121.995 13.43C121.295 13.87 120.675 14.44 120.135 15.14C120.035 15.26 119.915 15.46 119.775 15.74C119.635 16 119.525 16.27 119.445 16.55C119.365 16.83 119.335 17.1 119.355 17.36C119.395 17.6 119.535 17.76 119.775 17.84C120.255 18 120.775 17.98 121.335 17.78C121.915 17.56 122.475 17.34 123.015 17.12C123.315 17 123.795 16.76 124.455 16.4C125.135 16.02 125.845 15.62 126.585 15.2C127.345 14.76 128.065 14.33 128.745 13.91C129.425 13.47 129.935 13.11 130.275 12.83C130.375 12.75 130.495 12.66 130.635 12.56C130.775 12.46 130.925 12.37 131.085 12.29C131.245 12.21 131.405 12.17 131.565 12.17C131.725 12.17 131.875 12.23 132.015 12.35C132.335 12.67 132.375 13.02 132.135 13.4C131.915 13.78 131.585 14.14 131.145 14.48C130.705 14.82 130.245 15.13 129.765 15.41C129.285 15.67 128.955 15.86 128.775 15.98C127.915 16.52 127.055 17.05 126.195 17.57C125.335 18.09 124.425 18.55 123.465 18.95C123.105 19.11 122.695 19.28 122.235 19.46C121.795 19.62 121.345 19.76 120.885 19.88C120.425 19.98 119.965 20.04 119.505 20.06C119.045 20.08 118.625 20 118.245 19.82C117.805 19.6 117.515 19.3 117.375 18.92C117.235 18.52 117.185 18.1 117.225 17.66C117.265 17.22 117.365 16.79 117.525 16.37C117.685 15.93 117.855 15.55 118.035 15.23C118.435 14.47 118.945 13.77 119.565 13.13C120.185 12.47 120.875 11.92 121.635 11.48C121.895 11.32 122.245 11.14 122.685 10.94C123.145 10.74 123.615 10.58 124.095 10.46C124.575 10.32 125.035 10.26 125.475 10.28C125.915 10.3 126.265 10.46 126.525 10.76C126.825 11.08 126.945 11.44 126.885 11.84C126.845 12.22 126.715 12.6 126.495 12.98C126.275 13.36 126.005 13.71 125.685 14.03C125.365 14.35 125.075 14.6 124.815 14.78ZM139.443 0.919999C139.803 0.659999 140.103 0.579998 140.343 0.679998C140.583 0.779998 140.743 0.959998 140.823 1.22C140.923 1.46 140.923 1.72 140.823 2C140.743 2.28 140.543 2.47 140.223 2.57C138.963 3.83 137.783 5.24 136.683 6.8C135.603 8.36 134.543 9.91 133.503 11.45C133.903 11.23 134.293 11.06 134.673 10.94C135.053 10.8 135.463 10.71 135.903 10.67C136.503 10.61 136.963 10.7 137.283 10.94C137.623 11.18 137.843 11.5 137.943 11.9C138.063 12.28 138.063 12.71 137.943 13.19C137.843 13.65 137.643 14.07 137.343 14.45C136.943 14.97 136.463 15.45 135.903 15.89C135.343 16.33 134.743 16.72 134.103 17.06C134.343 17.24 134.623 17.42 134.943 17.6C135.283 17.76 135.633 17.84 135.993 17.84C136.513 17.84 137.133 17.64 137.853 17.24C138.573 16.84 139.303 16.36 140.043 15.8C140.803 15.24 141.523 14.67 142.203 14.09C142.883 13.51 143.433 13.05 143.853 12.71C144.013 12.55 144.193 12.41 144.393 12.29C144.593 12.17 144.823 12.14 145.083 12.2C145.443 12.3 145.623 12.47 145.623 12.71C145.623 12.93 145.533 13.17 145.353 13.43C145.193 13.69 144.993 13.94 144.753 14.18C144.533 14.4 144.373 14.55 144.273 14.63C143.913 14.93 143.473 15.3 142.953 15.74C142.433 16.18 141.863 16.63 141.243 17.09C140.643 17.55 140.003 17.99 139.323 18.41C138.663 18.83 138.003 19.18 137.343 19.46C136.683 19.74 136.033 19.91 135.393 19.97C134.753 20.03 134.173 19.92 133.653 19.64C133.453 19.56 133.213 19.43 132.933 19.25C132.653 19.07 132.373 18.88 132.093 18.68C131.833 18.46 131.603 18.23 131.403 17.99C131.223 17.73 131.133 17.48 131.133 17.24C131.093 17.06 131.113 16.89 131.193 16.73C131.293 16.55 131.413 16.39 131.553 16.25C131.693 16.09 131.853 15.97 132.033 15.89C132.213 15.79 132.373 15.72 132.513 15.68C133.213 15.4 133.823 15.07 134.343 14.69C134.883 14.31 135.383 13.83 135.843 13.25C136.063 12.97 136.103 12.8 135.963 12.74C135.843 12.66 135.633 12.66 135.333 12.74C135.033 12.82 134.683 12.96 134.283 13.16C133.903 13.34 133.553 13.55 133.233 13.79C132.393 14.43 131.513 15.24 130.593 16.22C129.673 17.2 128.893 18.19 128.253 19.19C128.133 19.29 128.013 19.42 127.893 19.58C127.793 19.72 127.643 19.83 127.443 19.91C127.263 20.01 127.063 20.04 126.843 20C126.643 19.94 126.493 19.8 126.393 19.58C126.313 19.4 126.293 19.22 126.333 19.04C126.393 18.86 126.473 18.68 126.573 18.5C126.673 18.32 126.783 18.15 126.903 17.99C127.043 17.83 127.163 17.67 127.263 17.51C127.903 16.55 128.543 15.61 129.183 14.69C129.823 13.75 130.483 12.8 131.163 11.84C131.843 10.84 132.523 9.86 133.203 8.9C133.903 7.94 134.603 6.97 135.303 5.99C135.943 5.13 136.583 4.25 137.223 3.35C137.883 2.43 138.623 1.62 139.443 0.919999Z" fill="#E2DBD2"/>
</svg>
