<svg width="8" height="14" viewBox="0 0 8 14" fill="none" xmlns="http://www.w3.org/2000/svg">
<path d="M0.88916 1C3.83584 3.94668 6.97056 7.0814 6.97056 7.0814L1.0814 12.9706" stroke="#E2DBD2" stroke-linecap="round" stroke-linejoin="round"/>
</svg>
